(module ESP-13-WROOM-02 (layer F.Cu) (tedit 57B0EDEC)
  (descr "Module, ESP-8266, ESP-13-WROOM-02, 18 pad, SMD")
  (tags "Module ESP-8266 ESP8266")
  (fp_text reference REF** (at -3 -5) (layer F.SilkS)
    (effects (font (size 1 1) (thickness 0.15)))
  )
  (fp_text value ESP-13-WROOM-02 (at 9 0) (layer F.Fab)
    (effects (font (size 1 1) (thickness 0.15)))
  )
  (fp_line (start 0 -6.985) (end 0 -0.8) (layer F.SilkS) (width 0.1524))
  (fp_line (start 17.9832 12.6) (end 17.9832 12.9794) (layer F.SilkS) (width 0.1524))
  (fp_line (start 0 12.6) (end 0 12.9794) (layer F.SilkS) (width 0.1524))
  (fp_line (start 17.9832 -6.985) (end 17.9832 -0.8) (layer F.SilkS) (width 0.1524))
  (fp_line (start 0 13.0175) (end 17.9832 13.0175) (layer F.SilkS) (width 0.1524))
  (fp_line (start 17.9705 -6.985) (end 0 -6.985) (layer F.SilkS) (width 0.1524))
  (fp_line (start 18 -7) (end 0 -1.2) (layer F.CrtYd) (width 0.1524))
  (fp_line (start 0 -7) (end 18 -1.2) (layer F.CrtYd) (width 0.1524))
  (fp_text user "No Copper" (at 9 -4) (layer F.CrtYd)
    (effects (font (size 1 1) (thickness 0.15)))
  )
  (fp_line (start 0 -7) (end 0 -1.2) (layer F.CrtYd) (width 0.1524))
  (fp_line (start 0 -1.2) (end 18 -1.2) (layer F.CrtYd) (width 0.1524))
  (fp_line (start 18 -1.2) (end 18 -7) (layer F.CrtYd) (width 0.1524))
  (fp_line (start 18 -7) (end 0 -7) (layer F.CrtYd) (width 0.1524))
  (fp_line (start 18 -7) (end 18 13) (layer F.Fab) (width 0.05))
  (fp_line (start 0 13) (end 18 13) (layer F.Fab) (width 0.05))
  (fp_line (start 0 13) (end 0 -7) (layer F.Fab) (width 0.05))
  (fp_line (start 0 -7) (end 18 -7) (layer F.Fab) (width 0.05))
  (pad 10 smd oval (at 18 12) (size 2 0.9) (layers F.Cu F.Paste F.Mask))
  (pad 9 smd oval (at 0 12) (size 2 0.9) (layers F.Cu F.Paste F.Mask))
  (pad 1 smd rect (at 0 0) (size 2 0.9) (layers F.Cu F.Paste F.Mask))
  (pad 2 smd oval (at 0 1.5) (size 2 0.9) (layers F.Cu F.Paste F.Mask))
  (pad 3 smd oval (at 0 3) (size 2 0.9) (layers F.Cu F.Paste F.Mask))
  (pad 4 smd oval (at 0 4.5) (size 2 0.9) (layers F.Cu F.Paste F.Mask))
  (pad 5 smd oval (at 0 6) (size 2 0.9) (layers F.Cu F.Paste F.Mask))
  (pad 6 smd oval (at 0 7.5) (size 2 0.9) (layers F.Cu F.Paste F.Mask))
  (pad 7 smd oval (at 0 9) (size 2 0.9) (layers F.Cu F.Paste F.Mask))
  (pad 8 smd oval (at 0 10.5) (size 2 0.9) (layers F.Cu F.Paste F.Mask))
  (pad 11 smd oval (at 18 10.5) (size 2 0.9) (layers F.Cu F.Paste F.Mask))
  (pad 12 smd oval (at 18 9) (size 2 0.9) (layers F.Cu F.Paste F.Mask))
  (pad 13 smd oval (at 18 7.5) (size 2 0.9) (layers F.Cu F.Paste F.Mask))
  (pad 14 smd oval (at 18 6) (size 2 0.9) (layers F.Cu F.Paste F.Mask))
  (pad 15 smd oval (at 18 4.5) (size 2 0.9) (layers F.Cu F.Paste F.Mask))
  (pad 16 smd oval (at 18 3) (size 2 0.9) (layers F.Cu F.Paste F.Mask))
  (pad 17 smd oval (at 18 1.5) (size 2 0.9) (layers F.Cu F.Paste F.Mask))
  (pad 18 smd oval (at 18 0) (size 2 0.9) (layers F.Cu F.Paste F.Mask))
  (pad PAD smd rect (at 10.12 6.58) (size 4.3 4.3) (layers F.Cu F.Paste F.Mask))
  (model ESP8266.3dshapes/ESP-13-wroom-02.wrl
    (at (xyz 0 0 0))
    (scale (xyz 0.3937 0.3937 0.3937))
    (rotate (xyz 0 0 0))
  )
)
