(module C_Trimm_3_Pins (layer F.Cu) (tedit 597F077F)
  (descr "<b>Trimm capacitor</b><p>")
  (fp_text reference C? (at 0 -4.826) (layer Eco1.User)
    (effects (font (size 1.27 1.27) (thickness 0.1016)))
  )
  (fp_text value "" (at -2.54 6.985) (layer Eco1.User)
    (effects (font (size 1.27 1.27) (thickness 0.1016)))
  )
  (fp_circle (center 0 0) (end 2.54 -2.286) (layer F.SilkS) (width 0.3))
  (fp_line (start -0.59944 3.49758) (end -0.59944 3.8989) (layer Cmts.User) (width 0.127))
  (fp_line (start 0.59944 3.49758) (end -0.59944 3.49758) (layer Cmts.User) (width 0.127))
  (fp_line (start 0.59944 3.8989) (end 0.59944 3.49758) (layer Cmts.User) (width 0.127))
  (fp_line (start -0.59944 3.8989) (end 0.59944 3.8989) (layer Cmts.User) (width 0.127))
  (fp_line (start 3.49758 -0.59944) (end 3.49758 0.59944) (layer Cmts.User) (width 0.127))
  (fp_line (start 3.8989 -0.59944) (end 3.49758 -0.59944) (layer Cmts.User) (width 0.127))
  (fp_line (start 3.8989 0.59944) (end 3.8989 -0.59944) (layer Cmts.User) (width 0.127))
  (fp_line (start 3.49758 0.59944) (end 3.8989 0.59944) (layer Cmts.User) (width 0.127))
  (fp_line (start -3.8989 -0.59944) (end -3.8989 0.59944) (layer Cmts.User) (width 0.127))
  (fp_line (start -3.49758 -0.59944) (end -3.8989 -0.59944) (layer Cmts.User) (width 0.127))
  (fp_line (start -3.49758 0.59944) (end -3.49758 -0.59944) (layer Cmts.User) (width 0.127))
  (fp_line (start -3.8989 0.59944) (end -3.49758 0.59944) (layer Cmts.User) (width 0.127))
  (fp_circle (center 0 0) (end 1.45034 0) (layer F.SilkS) (width 0.127))
  (fp_circle (center 0 0) (end 1.4986 0) (layer F.SilkS) (width 0.00762))
  (fp_line (start -1.04902 -0.94996) (end 1.34874 0.49784) (layer F.SilkS) (width 0.127))
  (fp_line (start -1.34874 -0.44958) (end 1.04902 0.99822) (layer F.SilkS) (width 0.127))
  (fp_line (start -0.84836 -1.4986) (end 0.84836 -1.4986) (layer F.SilkS) (width 0.127))
  (fp_line (start 1.69926 0) (end 0.84836 -1.4986) (layer F.SilkS) (width 0.127))
  (fp_line (start 0.84836 1.4986) (end 1.69926 0) (layer F.SilkS) (width 0.127))
  (fp_line (start -0.84836 1.4986) (end 0.84836 1.4986) (layer F.SilkS) (width 0.127))
  (fp_line (start -1.69926 0) (end -0.84836 1.4986) (layer F.SilkS) (width 0.127))
  (fp_line (start -0.84836 -1.4986) (end -1.69926 0) (layer F.SilkS) (width 0.127))
  (fp_arc (start 0 0) (end 3.29946 1.19888) (angle 39.9) (layer Cmts.User) (width 0.254))
  (fp_arc (start 0 0) (end -3.29946 -1.19888) (angle 39.9) (layer Cmts.User) (width 0.254))
  (pad 1 thru_hole oval (at 3.49758 0) (size 1.94564 1.94564) (drill 1.29794) (layers *.Cu *.Mask))
  (pad 2 thru_hole oval (at 0 3.49758) (size 1.94564 1.94564) (drill 1.29794) (layers *.Cu *.Mask))
  (pad 1 thru_hole oval (at -3.49758 0) (size 1.94564 1.94564) (drill 1.29794) (layers *.Cu *.Mask))
)
