(module SOT-666 (layer F.Cu) (tedit 5887A014)
  (descr SOT666)
  (attr smd)
  (fp_text reference REF** (at 0 -1.75) (layer F.SilkS)
    (effects (font (size 1 1) (thickness 0.15)))
  )
  (fp_text value SOT-666 (at 0 1.75 180) (layer F.Fab)
    (effects (font (size 1 1) (thickness 0.15)))
  )
  (fp_line (start -0.65 -0.53) (end -0.33 -0.85) (layer F.Fab) (width 0.1))
  (fp_line (start 0.8 -0.9) (end -1.1 -0.9) (layer F.SilkS) (width 0.12))
  (fp_line (start -0.8 0.9) (end 0.8 0.9) (layer F.SilkS) (width 0.12))
  (fp_line (start -1.5 -1.1) (end 1.5 -1.1) (layer F.CrtYd) (width 0.05))
  (fp_line (start 0.65 -0.85) (end -0.33 -0.85) (layer F.Fab) (width 0.1))
  (fp_line (start -0.65 -0.53) (end -0.65 0.85) (layer F.Fab) (width 0.1))
  (fp_line (start -1.5 1.1) (end 1.5 1.1) (layer F.CrtYd) (width 0.05))
  (fp_line (start 0.65 -0.85) (end 0.65 0.85) (layer F.Fab) (width 0.1))
  (fp_line (start 0.65 0.85) (end -0.65 0.85) (layer F.Fab) (width 0.1))
  (fp_line (start -1.5 -1.1) (end -1.5 1.1) (layer F.CrtYd) (width 0.05))
  (fp_line (start 1.5 1.1) (end 1.5 -1.1) (layer F.CrtYd) (width 0.05))
  (pad 1 smd rect (at -0.85 -0.5375) (size 0.5 0.375) (layers F.Cu F.Paste F.Mask))
  (pad 3 smd rect (at -0.85 0.5375) (size 0.5 0.375) (layers F.Cu F.Paste F.Mask))
  (pad 5 smd rect (at 0.925 0) (size 0.65 0.3) (layers F.Cu F.Paste F.Mask))
  (pad 2 smd rect (at -0.925 0) (size 0.65 0.3) (layers F.Cu F.Paste F.Mask))
  (pad 4 smd rect (at 0.85 0.5375) (size 0.5 0.375) (layers F.Cu F.Paste F.Mask))
  (pad 6 smd rect (at 0.85 -0.5375) (size 0.5 0.375) (layers F.Cu F.Paste F.Mask))
  (model TO_SOT_Packages_SMD.3dshapes/SOT-666.wrl
    (at (xyz 0 0 0))
    (scale (xyz 0.07000000000000001 0.09 0.08))
    (rotate (xyz 0 0 90))
  )
)
