(module TSOT-23-8_HandSoldering (layer F.Cu) (tedit 588359E9)
  (descr "8-pin TSOT23 package, http://cds.linear.com/docs/en/packaging/SOT_8_05-08-1637.pdf")
  (tags "TSOT-23-8 Hand-soldering")
  (attr smd)
  (fp_text reference REF** (at 0 -2.45) (layer F.SilkS)
    (effects (font (size 1 1) (thickness 0.15)))
  )
  (fp_text value TSOT-23-8_HandSoldering (at 0 2.5) (layer F.Fab)
    (effects (font (size 1 1) (thickness 0.15)))
  )
  (fp_line (start -0.88 1.56) (end 0.88 1.56) (layer F.SilkS) (width 0.12))
  (fp_line (start 0.88 -1.51) (end -1.55 -1.51) (layer F.SilkS) (width 0.12))
  (fp_line (start -0.88 -1) (end -0.43 -1.45) (layer F.Fab) (width 0.1))
  (fp_line (start 0.88 -1.45) (end -0.43 -1.45) (layer F.Fab) (width 0.1))
  (fp_line (start -0.88 -1) (end -0.88 1.45) (layer F.Fab) (width 0.1))
  (fp_line (start 0.88 1.45) (end -0.88 1.45) (layer F.Fab) (width 0.1))
  (fp_line (start 0.88 -1.45) (end 0.88 1.45) (layer F.Fab) (width 0.1))
  (fp_line (start -2.96 -1.7) (end 2.96 -1.7) (layer F.CrtYd) (width 0.05))
  (fp_line (start -2.96 -1.7) (end -2.96 1.7) (layer F.CrtYd) (width 0.05))
  (fp_line (start 2.96 1.7) (end 2.96 -1.7) (layer F.CrtYd) (width 0.05))
  (fp_line (start 2.96 1.7) (end -2.96 1.7) (layer F.CrtYd) (width 0.05))
  (pad 1 smd rect (at -1.71 -0.97) (size 2 0.4) (layers F.Cu F.Paste F.Mask))
  (pad 2 smd rect (at -1.71 -0.33) (size 2 0.4) (layers F.Cu F.Paste F.Mask))
  (pad 3 smd rect (at -1.71 0.33) (size 2 0.4) (layers F.Cu F.Paste F.Mask))
  (pad 4 smd rect (at -1.71 0.97) (size 2 0.4) (layers F.Cu F.Paste F.Mask))
  (pad 5 smd rect (at 1.71 0.97) (size 2 0.4) (layers F.Cu F.Paste F.Mask))
  (pad 6 smd rect (at 1.71 0.33) (size 2 0.4) (layers F.Cu F.Paste F.Mask))
  (pad 7 smd rect (at 1.71 -0.33) (size 2 0.4) (layers F.Cu F.Paste F.Mask))
  (pad 8 smd rect (at 1.71 -0.97) (size 2 0.4) (layers F.Cu F.Paste F.Mask))
)
