(module Socket_Strip_Straight_2x27_Pitch2.54mm (layer F.Cu) (tedit 588DE959)
  (descr "Through hole straight socket strip, 2x27, 2.54mm pitch, double rows")
  (tags "Through hole socket strip THT 2x27 2.54mm double row")
  (fp_text reference REF** (at -1.27 -2.33) (layer F.SilkS)
    (effects (font (size 1 1) (thickness 0.15)))
  )
  (fp_text value Socket_Strip_Straight_2x27_Pitch2.54mm (at -1.27 68.37) (layer F.Fab)
    (effects (font (size 1 1) (thickness 0.15)))
  )
  (fp_line (start -3.81 -1.27) (end -3.81 67.31) (layer F.Fab) (width 0.1))
  (fp_line (start -3.81 67.31) (end 1.27 67.31) (layer F.Fab) (width 0.1))
  (fp_line (start 1.27 67.31) (end 1.27 -1.27) (layer F.Fab) (width 0.1))
  (fp_line (start 1.27 -1.27) (end -3.81 -1.27) (layer F.Fab) (width 0.1))
  (fp_line (start 1.33 1.27) (end 1.33 67.37) (layer F.SilkS) (width 0.12))
  (fp_line (start 1.33 67.37) (end -3.87 67.37) (layer F.SilkS) (width 0.12))
  (fp_line (start -3.87 67.37) (end -3.87 -1.33) (layer F.SilkS) (width 0.12))
  (fp_line (start -3.87 -1.33) (end -1.27 -1.33) (layer F.SilkS) (width 0.12))
  (fp_line (start -1.27 -1.33) (end -1.27 1.27) (layer F.SilkS) (width 0.12))
  (fp_line (start -1.27 1.27) (end 1.33 1.27) (layer F.SilkS) (width 0.12))
  (fp_line (start 1.33 0) (end 1.33 -1.33) (layer F.SilkS) (width 0.12))
  (fp_line (start 1.33 -1.33) (end 0.06 -1.33) (layer F.SilkS) (width 0.12))
  (fp_line (start -4.1 -1.55) (end -4.1 67.6) (layer F.CrtYd) (width 0.05))
  (fp_line (start -4.1 67.6) (end 1.55 67.6) (layer F.CrtYd) (width 0.05))
  (fp_line (start 1.55 67.6) (end 1.55 -1.55) (layer F.CrtYd) (width 0.05))
  (fp_line (start 1.55 -1.55) (end -4.1 -1.55) (layer F.CrtYd) (width 0.05))
  (pad 1 thru_hole rect (at 0 0) (size 1.7 1.7) (drill 1.0) (layers *.Cu *.Mask))
  (pad 2 thru_hole oval (at -2.54 0) (size 1.7 1.7) (drill 1.0) (layers *.Cu *.Mask))
  (pad 3 thru_hole oval (at 0 2.54) (size 1.7 1.7) (drill 1.0) (layers *.Cu *.Mask))
  (pad 4 thru_hole oval (at -2.54 2.54) (size 1.7 1.7) (drill 1.0) (layers *.Cu *.Mask))
  (pad 5 thru_hole oval (at 0 5.08) (size 1.7 1.7) (drill 1.0) (layers *.Cu *.Mask))
  (pad 6 thru_hole oval (at -2.54 5.08) (size 1.7 1.7) (drill 1.0) (layers *.Cu *.Mask))
  (pad 7 thru_hole oval (at 0 7.62) (size 1.7 1.7) (drill 1.0) (layers *.Cu *.Mask))
  (pad 8 thru_hole oval (at -2.54 7.62) (size 1.7 1.7) (drill 1.0) (layers *.Cu *.Mask))
  (pad 9 thru_hole oval (at 0 10.16) (size 1.7 1.7) (drill 1.0) (layers *.Cu *.Mask))
  (pad 10 thru_hole oval (at -2.54 10.16) (size 1.7 1.7) (drill 1.0) (layers *.Cu *.Mask))
  (pad 11 thru_hole oval (at 0 12.7) (size 1.7 1.7) (drill 1.0) (layers *.Cu *.Mask))
  (pad 12 thru_hole oval (at -2.54 12.7) (size 1.7 1.7) (drill 1.0) (layers *.Cu *.Mask))
  (pad 13 thru_hole oval (at 0 15.24) (size 1.7 1.7) (drill 1.0) (layers *.Cu *.Mask))
  (pad 14 thru_hole oval (at -2.54 15.24) (size 1.7 1.7) (drill 1.0) (layers *.Cu *.Mask))
  (pad 15 thru_hole oval (at 0 17.78) (size 1.7 1.7) (drill 1.0) (layers *.Cu *.Mask))
  (pad 16 thru_hole oval (at -2.54 17.78) (size 1.7 1.7) (drill 1.0) (layers *.Cu *.Mask))
  (pad 17 thru_hole oval (at 0 20.32) (size 1.7 1.7) (drill 1.0) (layers *.Cu *.Mask))
  (pad 18 thru_hole oval (at -2.54 20.32) (size 1.7 1.7) (drill 1.0) (layers *.Cu *.Mask))
  (pad 19 thru_hole oval (at 0 22.86) (size 1.7 1.7) (drill 1.0) (layers *.Cu *.Mask))
  (pad 20 thru_hole oval (at -2.54 22.86) (size 1.7 1.7) (drill 1.0) (layers *.Cu *.Mask))
  (pad 21 thru_hole oval (at 0 25.4) (size 1.7 1.7) (drill 1.0) (layers *.Cu *.Mask))
  (pad 22 thru_hole oval (at -2.54 25.4) (size 1.7 1.7) (drill 1.0) (layers *.Cu *.Mask))
  (pad 23 thru_hole oval (at 0 27.94) (size 1.7 1.7) (drill 1.0) (layers *.Cu *.Mask))
  (pad 24 thru_hole oval (at -2.54 27.94) (size 1.7 1.7) (drill 1.0) (layers *.Cu *.Mask))
  (pad 25 thru_hole oval (at 0 30.48) (size 1.7 1.7) (drill 1.0) (layers *.Cu *.Mask))
  (pad 26 thru_hole oval (at -2.54 30.48) (size 1.7 1.7) (drill 1.0) (layers *.Cu *.Mask))
  (pad 27 thru_hole oval (at 0 33.02) (size 1.7 1.7) (drill 1.0) (layers *.Cu *.Mask))
  (pad 28 thru_hole oval (at -2.54 33.02) (size 1.7 1.7) (drill 1.0) (layers *.Cu *.Mask))
  (pad 29 thru_hole oval (at 0 35.56) (size 1.7 1.7) (drill 1.0) (layers *.Cu *.Mask))
  (pad 30 thru_hole oval (at -2.54 35.56) (size 1.7 1.7) (drill 1.0) (layers *.Cu *.Mask))
  (pad 31 thru_hole oval (at 0 38.1) (size 1.7 1.7) (drill 1.0) (layers *.Cu *.Mask))
  (pad 32 thru_hole oval (at -2.54 38.1) (size 1.7 1.7) (drill 1.0) (layers *.Cu *.Mask))
  (pad 33 thru_hole oval (at 0 40.64) (size 1.7 1.7) (drill 1.0) (layers *.Cu *.Mask))
  (pad 34 thru_hole oval (at -2.54 40.64) (size 1.7 1.7) (drill 1.0) (layers *.Cu *.Mask))
  (pad 35 thru_hole oval (at 0 43.18) (size 1.7 1.7) (drill 1.0) (layers *.Cu *.Mask))
  (pad 36 thru_hole oval (at -2.54 43.18) (size 1.7 1.7) (drill 1.0) (layers *.Cu *.Mask))
  (pad 37 thru_hole oval (at 0 45.72) (size 1.7 1.7) (drill 1.0) (layers *.Cu *.Mask))
  (pad 38 thru_hole oval (at -2.54 45.72) (size 1.7 1.7) (drill 1.0) (layers *.Cu *.Mask))
  (pad 39 thru_hole oval (at 0 48.26) (size 1.7 1.7) (drill 1.0) (layers *.Cu *.Mask))
  (pad 40 thru_hole oval (at -2.54 48.26) (size 1.7 1.7) (drill 1.0) (layers *.Cu *.Mask))
  (pad 41 thru_hole oval (at 0 50.8) (size 1.7 1.7) (drill 1.0) (layers *.Cu *.Mask))
  (pad 42 thru_hole oval (at -2.54 50.8) (size 1.7 1.7) (drill 1.0) (layers *.Cu *.Mask))
  (pad 43 thru_hole oval (at 0 53.34) (size 1.7 1.7) (drill 1.0) (layers *.Cu *.Mask))
  (pad 44 thru_hole oval (at -2.54 53.34) (size 1.7 1.7) (drill 1.0) (layers *.Cu *.Mask))
  (pad 45 thru_hole oval (at 0 55.88) (size 1.7 1.7) (drill 1.0) (layers *.Cu *.Mask))
  (pad 46 thru_hole oval (at -2.54 55.88) (size 1.7 1.7) (drill 1.0) (layers *.Cu *.Mask))
  (pad 47 thru_hole oval (at 0 58.42) (size 1.7 1.7) (drill 1.0) (layers *.Cu *.Mask))
  (pad 48 thru_hole oval (at -2.54 58.42) (size 1.7 1.7) (drill 1.0) (layers *.Cu *.Mask))
  (pad 49 thru_hole oval (at 0 60.96) (size 1.7 1.7) (drill 1.0) (layers *.Cu *.Mask))
  (pad 50 thru_hole oval (at -2.54 60.96) (size 1.7 1.7) (drill 1.0) (layers *.Cu *.Mask))
  (pad 51 thru_hole oval (at 0 63.5) (size 1.7 1.7) (drill 1.0) (layers *.Cu *.Mask))
  (pad 52 thru_hole oval (at -2.54 63.5) (size 1.7 1.7) (drill 1.0) (layers *.Cu *.Mask))
  (pad 53 thru_hole oval (at 0 66.04) (size 1.7 1.7) (drill 1.0) (layers *.Cu *.Mask))
  (pad 54 thru_hole oval (at -2.54 66.04) (size 1.7 1.7) (drill 1.0) (layers *.Cu *.Mask))
  (model Socket_Strips.3dshapes/Socket_Strip_Straight_2x27_Pitch2.54mm.wrl
    (at (xyz -0.05 -1.3 0))
    (scale (xyz 1 1 1))
    (rotate (xyz 0 0 270))
  )
)