(module Socket_Strip_Straight_1x03_Pitch2.54mm (layer F.Cu) (tedit 588DE956)
  (descr "Through hole straight socket strip, 1x03, 2.54mm pitch, single row")
  (tags "Through hole socket strip THT 1x03 2.54mm single row")
  (fp_text reference REF** (at 0 -2.33) (layer F.SilkS)
    (effects (font (size 1 1) (thickness 0.15)))
  )
  (fp_text value Socket_Strip_Straight_1x03_Pitch2.54mm (at 0 7.41) (layer F.Fab)
    (effects (font (size 1 1) (thickness 0.15)))
  )
  (fp_line (start -1.27 -1.27) (end -1.27 6.35) (layer F.Fab) (width 0.1))
  (fp_line (start -1.27 6.35) (end 1.27 6.35) (layer F.Fab) (width 0.1))
  (fp_line (start 1.27 6.35) (end 1.27 -1.27) (layer F.Fab) (width 0.1))
  (fp_line (start 1.27 -1.27) (end -1.27 -1.27) (layer F.Fab) (width 0.1))
  (fp_line (start -1.33 1.27) (end -1.33 6.41) (layer F.SilkS) (width 0.12))
  (fp_line (start -1.33 6.41) (end 1.33 6.41) (layer F.SilkS) (width 0.12))
  (fp_line (start 1.33 6.41) (end 1.33 1.27) (layer F.SilkS) (width 0.12))
  (fp_line (start 1.33 1.27) (end -1.33 1.27) (layer F.SilkS) (width 0.12))
  (fp_line (start -1.33 0) (end -1.33 -1.33) (layer F.SilkS) (width 0.12))
  (fp_line (start -1.33 -1.33) (end 0 -1.33) (layer F.SilkS) (width 0.12))
  (fp_line (start -1.55 -1.55) (end -1.55 6.6) (layer F.CrtYd) (width 0.05))
  (fp_line (start -1.55 6.6) (end 1.55 6.6) (layer F.CrtYd) (width 0.05))
  (fp_line (start 1.55 6.6) (end 1.55 -1.55) (layer F.CrtYd) (width 0.05))
  (fp_line (start 1.55 -1.55) (end -1.55 -1.55) (layer F.CrtYd) (width 0.05))
  (pad 1 thru_hole rect (at 0 0) (size 1.7 1.7) (drill 1.0) (layers *.Cu *.Mask))
  (pad 2 thru_hole oval (at 0 2.54) (size 1.7 1.7) (drill 1.0) (layers *.Cu *.Mask))
  (pad 3 thru_hole oval (at 0 5.08) (size 1.7 1.7) (drill 1.0) (layers *.Cu *.Mask))
  (model Socket_Strips.3dshapes/Socket_Strip_Straight_1x03_Pitch2.54mm.wrl
    (at (xyz 0 -0.1 0))
    (scale (xyz 1 1 1))
    (rotate (xyz 0 0 270))
  )
)